{
  "project": {
    "default_branch": "master",
    "git_http_url": "https://gitlab.com/gitlab-org/gitaly.git",
    "git_ssh_url": "git@gitlab.com:gitlab-org/gitaly.git",
    "visibility_level": 20,
    "url": "git@gitlab.com:gitlab-org/gitaly.git",
    "ci_config_path": "",
    "web_url": "https://gitlab.com/gitlab-org/gitaly",
    "homepage": "https://gitlab.com/gitlab-org/gitaly",
    "avatar_url": "https://gitlab.com/uploads/-/system/project/avatar/2009901/gitaly7.png",
    "ssh_url": "git@gitlab.com:gitlab-org/gitaly.git",
    "path_with_namespace": "gitlab-org/gitaly",
    "id": 2009901,
    "description": "Gitaly is a Git RPC service for handling all the git calls made by GitLab",
    "http_url": "https://gitlab.com/gitlab-org/gitaly.git",
    "namespace": "GitLab.org",
    "name": "gitaly"
  },
  "object_attributes": {
    "merge_commit_sha": null,
    "milestone_id": 2161849,
    "id": 137871253,
    "last_edited_by_id": null,
    "human_time_estimate": null,
    "time_estimate": 0,
    "target_branch": "master",
    "merge_user_id": null,
    "created_at": "2022-01-31 16:48:17 UTC",
    "merge_when_pipeline_succeeds": false,
    "merge_params": {
      "force_remove_source_branch": "1"
    },
    "updated_by_id": null,
    "time_change": 0,
    "assignee_ids": [
      5522960
    ],
    "updated_at": "2022-01-31 16:48:18 UTC",
    "merge_error": null,
    "last_commit": {
      "url": "https://gitlab.com/gitlab-org/gitaly/-/commit/58b824444e5b8fbcc0376d7dd37ed6684291f278",
      "author": {
        "email": "shiltunen@gitlab.com",
        "name": "Sami Hiltunen"
      },
      "title": "Propagate test context to setup helpers in blob package",
      "message": "Propagate test context to setup helpers in blob package\n\nsetup is currently using a TODO context. This commit propagates\nthe test context down from the tests to the setup helper.\n",
      "timestamp": "2022-01-31T18:45:05+02:00",
      "id": "58b824444e5b8fbcc0376d7dd37ed6684291f278"
    },
    "action": "open",
    "title": "Disable metadata creation hack in blob service tests",
    "assignee_id": 5522960,
    "state_id": 1,
    "work_in_progress": false,
    "first_contribution": false,
    "human_time_change": null,
    "source_branch": "smh-create-repo-blob",
    "merge_status": "preparing",
    "head_pipeline_id": null,
    "source": {
      "http_url": "https://gitlab.com/gitlab-org/gitaly.git",
      "name": "gitaly",
      "path_with_namespace": "gitlab-org/gitaly",
      "description": "Gitaly is a Git RPC service for handling all the git calls made by GitLab",
      "visibility_level": 20,
      "url": "git@gitlab.com:gitlab-org/gitaly.git",
      "namespace": "GitLab.org",
      "git_ssh_url": "git@gitlab.com:gitlab-org/gitaly.git",
      "homepage": "https://gitlab.com/gitlab-org/gitaly",
      "web_url": "https://gitlab.com/gitlab-org/gitaly",
      "id": 2009901,
      "default_branch": "master",
      "ci_config_path": "",
      "ssh_url": "git@gitlab.com:gitlab-org/gitaly.git",
      "git_http_url": "https://gitlab.com/gitlab-org/gitaly.git",
      "avatar_url": "https://gitlab.com/uploads/-/system/project/avatar/2009901/gitaly7.png"
    },
    "total_time_spent": 0,
    "url": "https://gitlab.com/gitlab-org/gitaly/-/merge_requests/4301",
    "iid": 4301,
    "author_id": 5522960,
    "human_total_time_spent": null,
    "blocking_discussions_resolved": true,
    "last_edited_at": null,
    "source_project_id": 2009901,
    "state": "opened",
    "target_project_id": 2009901,
    "target": {
      "ssh_url": "git@gitlab.com:gitlab-org/gitaly.git",
      "path_with_namespace": "gitlab-org/gitaly",
      "default_branch": "master",
      "http_url": "https://gitlab.com/gitlab-org/gitaly.git",
      "namespace": "GitLab.org",
      "avatar_url": "https://gitlab.com/uploads/-/system/project/avatar/2009901/gitaly7.png",
      "id": 2009901,
      "ci_config_path": "",
      "web_url": "https://gitlab.com/gitlab-org/gitaly",
      "description": "Gitaly is a Git RPC service for handling all the git calls made by GitLab",
      "git_http_url": "https://gitlab.com/gitlab-org/gitaly.git",
      "git_ssh_url": "git@gitlab.com:gitlab-org/gitaly.git",
      "homepage": "https://gitlab.com/gitlab-org/gitaly",
      "visibility_level": 20,
      "url": "git@gitlab.com:gitlab-org/gitaly.git",
      "name": "gitaly"
    },
    "description": "Praefect contains a hack to create repository metadata when receiving\na request for a repository. This was put in place to enable us to use\nthe production code of Praefect in tests. That code requires database\nrecords for repositories to be present. Praefect piggy backed on Gitaly's\ntests for most of its RPC testing. Those tests broke with the new requirement\nas they generally just place the repositories in the storage directly rather\nthan creating the repositories through the API which would allow Praefect\nto create the metadata records. This testing hack potentially hides problems\nin Praefect. As a first step towards removing it, this commit adds an option\nto disable the testing hack in the test server. This allows for asserting a\ngiven test no longer relies on the hack after being updated to create the\nrepositories through the API."
  },
  "changes": {
    "merge_status": {
      "current": "preparing",
      "previous": "unchecked"
    }
  },
  "object_kind": "merge_request",
  "event_type": "merge_request",
  "user": {
    "username": "samihiltunen",
    "avatar_url": "https://gitlab.com/uploads/-/system/user/avatar/5522960/avatar.png",
    "name": "Sami Hiltunen",
    "id": 5522960,
    "email": "[REDACTED]"
  },
  "repository": {
    "homepage": "https://gitlab.com/gitlab-org/gitaly",
    "url": "git@gitlab.com:gitlab-org/gitaly.git",
    "name": "gitaly",
    "description": "Gitaly is a Git RPC service for handling all the git calls made by GitLab"
  },
  "labels": [
    {
      "group_id": 9970,
      "description": "Category vision in Create stage: https://gitlab.com/groups/gitlab-org/-/epics/710",
      "title": "Category:Gitaly",
      "template": false,
      "updated_at": "2019-08-27 17:08:09 UTC",
      "project_id": null,
      "color": "#428BCA",
      "created_at": "2019-07-25 19:21:00 UTC",
      "id": 11469077,
      "type": "GroupLabel"
    },
    {
      "template": false,
      "title": "Gitaly",
      "type": "ProjectLabel",
      "description": null,
      "id": 11809706,
      "created_at": "2019-08-19 15:47:22 UTC",
      "updated_at": "2019-08-19 15:47:22 UTC",
      "group_id": null,
      "color": "#428BCA",
      "project_id": 2009901
    },
    {
      "title": "Gitaly Cluster",
      "type": "GroupLabel",
      "created_at": "2019-04-09 18:53:14 UTC",
      "project_id": null,
      "description": "",
      "updated_at": "2020-05-25 00:32:30 UTC",
      "template": false,
      "color": "#004E00",
      "group_id": 9970,
      "id": 10234680
    },
    {
      "created_at": "2017-12-01 19:01:03 UTC",
      "description": "Issues for the Create stage of the DevOps lifecycle (e.g. Source Code Management, Design Management, Web IDE, Code Review, Gitaly, Gitter)",
      "type": "GroupLabel",
      "title": "devops::create",
      "project_id": null,
      "updated_at": "2019-05-23 10:42:41 UTC",
      "color": "#E44D2A",
      "template": false,
      "id": 3103452,
      "group_id": 9970
    },
    {
      "project_id": null,
      "type": "GroupLabel",
      "created_at": "2019-05-22 20:15:36 UTC",
      "description": "Issues belonging to the Gitaly group of the Create stage of the DevOps lifecycle. See https://about.gitlab.com/handbook/product/categories/#gitaly-group",
      "id": 10690821,
      "title": "group::gitaly",
      "group_id": 9970,
      "color": "#A8D695",
      "template": false,
      "updated_at": "2019-05-22 20:15:36 UTC"
    }
  ],
  "assignees": [
    {
      "name": "Sami Hiltunen",
      "avatar_url": "https://gitlab.com/uploads/-/system/user/avatar/5522960/avatar.png",
      "id": 5522960,
      "email": "[REDACTED]",
      "username": "samihiltunen"
    }
  ]
}
