{
    "version": "3.12.0",
    "messages":
    [
        "Run options: exclude {:quarantine=>true, :level=>\"background_migration\"}",
        "\n1st Try error in ./spec/support/shared_examples/features/sidebar/sidebar_labels_shared_examples.rb:33:\nUnable to find css \".board:nth-child(1)\"\n\nTimeout (30s) reached while running a waiting Capybara finder.\nConsider using a non-waiting finder.\n\nSee https://www.cloudbees.com/blog/faster-rails-tests\n\nUnexpected browser console output:\nhttps://www.gravatar.com/avatar/10fc7f102be8de7657fb4d80898bbfe3?s=80&d=identicon - Failed to load resource: net::ERR_SOCKET_NOT_CONNECTED\nhttp://127.0.0.1:42081/group1/project-1/-/boards/1 - Failed to load resource: the server responded with a status of 404 (Not Found)\n",
        "\nRSpec::Retry: 2nd try ./spec/support/shared_examples/features/sidebar/sidebar_labels_shared_examples.rb:33",
        "\n1st Try error in ./spec/support/shared_examples/features/sidebar/sidebar_labels_shared_examples.rb:50:\nUnable to find css \".board:nth-child(1)\"\n\nTimeout (30s) reached while running a waiting Capybara finder.\nConsider using a non-waiting finder.\n\nSee https://www.cloudbees.com/blog/faster-rails-tests\n\nUnexpected browser console output:\nhttp://127.0.0.1:42081/group1/project-1/-/boards/1 - Failed to load resource: the server responded with a status of 404 (Not Found)\n",
        "\nRSpec::Retry: 2nd try ./spec/support/shared_examples/features/sidebar/sidebar_labels_shared_examples.rb:50",
        "\n1st Try error in ./spec/support/shared_examples/features/sidebar/sidebar_labels_shared_examples.rb:73:\nUnable to find css \".board:nth-child(1)\"\n\nTimeout (30s) reached while running a waiting Capybara finder.\nConsider using a non-waiting finder.\n\nSee https://www.cloudbees.com/blog/faster-rails-tests\n\nUnexpected browser console output:\nhttp://127.0.0.1:42081/group1/project-1/-/boards/1 - Failed to load resource: the server responded with a status of 404 (Not Found)\n",
        "\nRSpec::Retry: 2nd try ./spec/support/shared_examples/features/sidebar/sidebar_labels_shared_examples.rb:73",
        "\n1st Try error in ./spec/support/shared_examples/features/sidebar/sidebar_labels_shared_examples.rb:79:\nUnable to find css \".board:nth-child(1)\"\n\nTimeout (30s) reached while running a waiting Capybara finder.\nConsider using a non-waiting finder.\n\nSee https://www.cloudbees.com/blog/faster-rails-tests\n\nUnexpected browser console output:\nhttp://127.0.0.1:42081/group1/project-1/-/boards/1 - Failed to load resource: the server responded with a status of 404 (Not Found)\n",
        "\nRSpec::Retry: 2nd try ./spec/support/shared_examples/features/sidebar/sidebar_labels_shared_examples.rb:79",
        "\n1st Try error in ./spec/support/shared_examples/features/sidebar/sidebar_labels_shared_examples.rb:92:\nUnable to find css \".board:nth-child(1)\"\n\nTimeout (30s) reached while running a waiting Capybara finder.\nConsider using a non-waiting finder.\n\nSee https://www.cloudbees.com/blog/faster-rails-tests\n\nUnexpected browser console output:\nhttp://127.0.0.1:42081/group1/project-1/-/boards/1 - Failed to load resource: the server responded with a status of 404 (Not Found)\n",
        "\nRSpec::Retry: 2nd try ./spec/support/shared_examples/features/sidebar/sidebar_labels_shared_examples.rb:92",
        "\n1st Try error in ./spec/support/shared_examples/features/sidebar/sidebar_labels_shared_examples.rb:109:\nUnable to find css \".board:nth-child(1)\"\n\nTimeout (30s) reached while running a waiting Capybara finder.\nConsider using a non-waiting finder.\n\nSee https://www.cloudbees.com/blog/faster-rails-tests\n\nUnexpected browser console output:\nhttp://127.0.0.1:42081/group1/project-1/-/boards/1 - Failed to load resource: the server responded with a status of 404 (Not Found)\n",
        "\nRSpec::Retry: 2nd try ./spec/support/shared_examples/features/sidebar/sidebar_labels_shared_examples.rb:109",
        "\n1st Try error in ./spec/support/shared_examples/features/sidebar_shared_examples.rb:78:\nUnable to find css \".board:nth-child(1)\"\n\nTimeout (30s) reached while running a waiting Capybara finder.\nConsider using a non-waiting finder.\n\nSee https://www.cloudbees.com/blog/faster-rails-tests\n\nUnexpected browser console output:\nhttp://127.0.0.1:42081/group1/project-1/-/boards/1 - Failed to load resource: the server responded with a status of 404 (Not Found)\n",
        "\nRSpec::Retry: 2nd try ./spec/support/shared_examples/features/sidebar_shared_examples.rb:78",
        "\n1st Try error in ./spec/support/shared_examples/features/sidebar_shared_examples.rb:86:\nUnable to find css \".board:nth-child(1)\"\n\nTimeout (30s) reached while running a waiting Capybara finder.\nConsider using a non-waiting finder.\n\nSee https://www.cloudbees.com/blog/faster-rails-tests\n\nUnexpected browser console output:\nhttp://127.0.0.1:42081/group1/project-1/-/boards/1 - Failed to load resource: the server responded with a status of 404 (Not Found)\n",
        "\nRSpec::Retry: 2nd try ./spec/support/shared_examples/features/sidebar_shared_examples.rb:86",
        "\n1st Try error in ./spec/support/shared_examples/features/sidebar_shared_examples.rb:108:\nUnable to find css \".board:nth-child(1)\"\n\nTimeout (30s) reached while running a waiting Capybara finder.\nConsider using a non-waiting finder.\n\nSee https://www.cloudbees.com/blog/faster-rails-tests\n\nUnexpected browser console output:\nhttp://127.0.0.1:42081/group1/project-1/-/boards/1 - Failed to load resource: the server responded with a status of 404 (Not Found)\n",
        "\nRSpec::Retry: 2nd try ./spec/support/shared_examples/features/sidebar_shared_examples.rb:108",
        "\n1st Try error in ./spec/support/shared_examples/features/sidebar_shared_examples.rb:118:\nUnable to find css \".board:nth-child(1)\"\n\nTimeout (30s) reached while running a waiting Capybara finder.\nConsider using a non-waiting finder.\n\nSee https://www.cloudbees.com/blog/faster-rails-tests\n\nUnexpected browser console output:\nhttp://127.0.0.1:42081/group1/project-1/-/boards/1 - Failed to load resource: the server responded with a status of 404 (Not Found)\n",
        "\nRSpec::Retry: 2nd try ./spec/support/shared_examples/features/sidebar_shared_examples.rb:118",
        "\n1st Try error in ./spec/support/shared_examples/features/sidebar_shared_examples.rb:140:\nUnable to find css \".board:nth-child(1)\"\n\nTimeout (30s) reached while running a waiting Capybara finder.\nConsider using a non-waiting finder.\n\nSee https://www.cloudbees.com/blog/faster-rails-tests\n\nUnexpected browser console output:\nhttp://127.0.0.1:42081/group1/project-1/-/boards/1 - Failed to load resource: the server responded with a status of 404 (Not Found)\n",
        "\nRSpec::Retry: 2nd try ./spec/support/shared_examples/features/sidebar_shared_examples.rb:140",
        "\n1st Try error in ./spec/support/shared_examples/features/sidebar_shared_examples.rb:154:\nUnable to find css \".board:nth-child(1)\"\n\nTimeout (30s) reached while running a waiting Capybara finder.\nConsider using a non-waiting finder.\n\nSee https://www.cloudbees.com/blog/faster-rails-tests\n\nUnexpected browser console output:\nhttp://127.0.0.1:42081/group1/project-1/-/boards/1 - Failed to load resource: the server responded with a status of 404 (Not Found)\n",
        "\nRSpec::Retry: 2nd try ./spec/support/shared_examples/features/sidebar_shared_examples.rb:154",
        "\n1st Try error in ./spec/support/shared_examples/features/sidebar_shared_examples.rb:169:\nUnable to find css \".board:nth-child(1)\"\n\nTimeout (30s) reached while running a waiting Capybara finder.\nConsider using a non-waiting finder.\n\nSee https://www.cloudbees.com/blog/faster-rails-tests\n\nUnexpected browser console output:\nhttp://127.0.0.1:42081/group1/project-1/-/boards/1 - Failed to load resource: the server responded with a status of 404 (Not Found)\n",
        "\nRSpec::Retry: 2nd try ./spec/support/shared_examples/features/sidebar_shared_examples.rb:169",
        "\n1st Try error in ./spec/support/shared_examples/features/sidebar_shared_examples.rb:185:\nUnable to find css \".board:nth-child(1)\"\n\nTimeout (30s) reached while running a waiting Capybara finder.\nConsider using a non-waiting finder.\n\nSee https://www.cloudbees.com/blog/faster-rails-tests\n\nUnexpected browser console output:\nhttp://127.0.0.1:42081/group1/project-1/-/boards/1 - Failed to load resource: the server responded with a status of 404 (Not Found)\n",
        "\nRSpec::Retry: 2nd try ./spec/support/shared_examples/features/sidebar_shared_examples.rb:185",
        "\n1st Try error in ./spec/support/shared_examples/features/sidebar_shared_examples.rb:191:\nUnable to find css \".board:nth-child(1)\"\n\nTimeout (30s) reached while running a waiting Capybara finder.\nConsider using a non-waiting finder.\n\nSee https://www.cloudbees.com/blog/faster-rails-tests\n\nUnexpected browser console output:\nhttp://127.0.0.1:42081/group1/project-1/-/boards/1 - Failed to load resource: the server responded with a status of 404 (Not Found)\n",
        "\nRSpec::Retry: 2nd try ./spec/support/shared_examples/features/sidebar_shared_examples.rb:191",
        "\n1st Try error in ./spec/support/shared_examples/features/sidebar_shared_examples.rb:208:\nUnable to find css \".board:nth-child(1)\"\n\nTimeout (30s) reached while running a waiting Capybara finder.\nConsider using a non-waiting finder.\n\nSee https://www.cloudbees.com/blog/faster-rails-tests\n\nUnexpected browser console output:\nhttp://127.0.0.1:42081/group1/project-1/-/boards/1 - Failed to load resource: the server responded with a status of 404 (Not Found)\n",
        "\nRSpec::Retry: 2nd try ./spec/support/shared_examples/features/sidebar_shared_examples.rb:208",
        "\n1st Try error in ./spec/features/nav/new_nav_callout_spec.rb:21:\nexpected not to find text \"Welcome to a new navigation experience\" in \"Skip to main content Create new... Sidney Jones120 user’s menu Your work Projects Groups Issues Merge requests To-Do List Milestones Snippets Activity Help Welcome to a new navigation experience For the next few releases, you can go to your avatar at any time to turn the new navigation on and off. Read more about the changes, the vision, and the design. Learn more Provide feedback Your work Projects Welcome to GitLab Faster releases. Better code. Less pain. Create a project Projects are where you store your code, access issues, wiki and other features of GitLab. Create a group Groups are the best way to manage projects and members. Explore public projects Public projects are an easy way to allow everyone to have read-only access. Learn more about GitLab Take a look at the documentation to discover all of GitLab’s capabilities.\"\n\nTimeout (30s) reached while running a waiting Capybara finder.\nConsider using a non-waiting finder.\n\nSee https://www.cloudbees.com/blog/faster-rails-tests\n\nUnexpected browser console output:\nwebpack-internal:///rP6D 23:46 \"[vue-router] Non-nested routes must include a leading slash character. Fix the following routes: \\n- (/-)?/tree/master/:path*\\n- (/-)?/blob/master/:path*\"\nwebpack-internal:///rP6D 23:46 \"[vue-router] Non-nested routes must include a leading slash character. Fix the following routes: \\n- (/-)?/tree/master/:path*\\n- (/-)?/blob/master/:path*\"\nhttp://127.0.0.1:42081/assets/webpack/dll.c13fa4e291cd/vendor.dll.bundle.js 289881:20 \"[Vue warn]: Error in render: \\\"TypeError: Cannot read properties of undefined (reading 'tooltip')\\\"\\n\\nfound in\\n\\n---> \\u003CActionsButton> at vue_shared/components/actions_button.vue\\n       \\u003CWebIdeLink> at vue_shared/components/web_ide_link.vue\\n         \\u003CRoot>\"\nhttp://127.0.0.1:42081/assets/webpack/dll.c13fa4e291cd/vendor.dll.bundle.js 288327:16 TypeError: Cannot read properties of undefined (reading 'tooltip')\n    at Proxy.render (webpack-internal:///I884:64:160)\n    at Vue._render (http://127.0.0.1:42081/assets/webpack/dll.c13fa4e291cd/vendor.dll.bundle.js:287963:28)\n    at VueComponent.updateComponent (http://127.0.0.1:42081/assets/webpack/dll.c13fa4e291cd/vendor.dll.bundle.js:289154:27)\n    at vendor_cfa5101e872114249e62../node_modules/vue/dist/vue.runtime.esm.js.Watcher.get (http://127.0.0.1:42081/assets/webpack/dll.c13fa4e291cd/vendor.dll.bundle.js:288725:33)\n    at new Watcher (http://127.0.0.1:42081/assets/webpack/dll.c13fa4e291cd/vendor.dll.bundle.js:288715:51)\n    at mountComponent (http://127.0.0.1:42081/assets/webpack/dll.c13fa4e291cd/vendor.dll.bundle.js:289171:5)\n    at vendor_cfa5101e872114249e62../node_modules/vue/dist/vue.runtime.esm.js.Vue.$mount (http://127.0.0.1:42081/assets/webpack/dll.c13fa4e291cd/vendor.dll.bundle.js:294045:12)\n    at init (http://127.0.0.1:42081/assets/webpack/dll.c13fa4e291cd/vendor.dll.bundle.js:289684:19)\n    at createComponent (http://127.0.0.1:42081/assets/webpack/dll.c13fa4e291cd/vendor.dll.bundle.js:291840:17)\n    at createElm (http://127.0.0.1:42081/assets/webpack/dll.c13fa4e291cd/vendor.dll.bundle.js:291794:13)\nwebpack-internal:///rP6D 23:46 \"[vue-router] Non-nested routes must include a leading slash character. Fix the following routes: \\n- (/-)?/tree/master/:path*\\n- (/-)?/blob/master/:path*\"\nhttp://127.0.0.1:42081/assets/webpack/dll.c13fa4e291cd/vendor.dll.bundle.js 289881:20 \"[Vue warn]: Error in render: \\\"TypeError: Cannot read properties of undefined (reading 'tooltip')\\\"\\n\\nfound in\\n\\n---> \\u003CActionsButton> at vue_shared/components/actions_button.vue\\n       \\u003CWebIdeLink> at vue_shared/components/web_ide_link.vue\\n         \\u003CRoot>\"\nhttp://127.0.0.1:42081/assets/webpack/dll.c13fa4e291cd/vendor.dll.bundle.js 288327:16 TypeError: Cannot read properties of undefined (reading 'tooltip')\n    at Proxy.render (webpack-internal:///I884:64:160)\n    at Vue._render (http://127.0.0.1:42081/assets/webpack/dll.c13fa4e291cd/vendor.dll.bundle.js:287963:28)\n    at VueComponent.updateComponent (http://127.0.0.1:42081/assets/webpack/dll.c13fa4e291cd/vendor.dll.bundle.js:289154:27)\n    at vendor_cfa5101e872114249e62../node_modules/vue/dist/vue.runtime.esm.js.Watcher.get (http://127.0.0.1:42081/assets/webpack/dll.c13fa4e291cd/vendor.dll.bundle.js:288725:33)\n    at new Watcher (http://127.0.0.1:42081/assets/webpack/dll.c13fa4e291cd/vendor.dll.bundle.js:288715:51)\n    at mountComponent (http://127.0.0.1:42081/assets/webpack/dll.c13fa4e291cd/vendor.dll.bundle.js:289171:5)\n    at vendor_cfa5101e872114249e62../node_modules/vue/dist/vue.runtime.esm.js.Vue.$mount (http://127.0.0.1:42081/assets/webpack/dll.c13fa4e291cd/vendor.dll.bundle.js:294045:12)\n    at init (http://127.0.0.1:42081/assets/webpack/dll.c13fa4e291cd/vendor.dll.bundle.js:289684:19)\n    at createComponent (http://127.0.0.1:42081/assets/webpack/dll.c13fa4e291cd/vendor.dll.bundle.js:291840:17)\n    at createElm (http://127.0.0.1:42081/assets/webpack/dll.c13fa4e291cd/vendor.dll.bundle.js:291794:13)\nwebpack-internal:///rP6D 23:46 \"[vue-router] Non-nested routes must include a leading slash character. Fix the following routes: \\n- (/-)?/tree/master/:path*\\n- (/-)?/blob/master/:path*\"\nwebpack-internal:///rP6D 23:46 \"[vue-router] Non-nested routes must include a leading slash character. Fix the following routes: \\n- (/-)?/tree/master/:path*\\n- (/-)?/blob/master/:path*\"\nhttp://127.0.0.1:42081/assets/webpack/dll.c13fa4e291cd/vendor.dll.bundle.js 289881:20 \"[Vue warn]: Error in render: \\\"TypeError: Cannot read properties of undefined (reading 'tooltip')\\\"\\n\\nfound in\\n\\n---> \\u003CActionsButton> at vue_shared/components/actions_button.vue\\n       \\u003CWebIdeLink> at vue_shared/components/web_ide_link.vue\\n         \\u003CRoot>\"\nhttp://127.0.0.1:42081/assets/webpack/dll.c13fa4e291cd/vendor.dll.bundle.js 288327:16 TypeError: Cannot read properties of undefined (reading 'tooltip')\n    at Proxy.render (webpack-internal:///I884:64:160)\n    at Vue._render (http://127.0.0.1:42081/assets/webpack/dll.c13fa4e291cd/vendor.dll.bundle.js:287963:28)\n    at VueComponent.updateComponent (http://127.0.0.1:42081/assets/webpack/dll.c13fa4e291cd/vendor.dll.bundle.js:289154:27)\n    at vendor_cfa5101e872114249e62../node_modules/vue/dist/vue.runtime.esm.js.Watcher.get (http://127.0.0.1:42081/assets/webpack/dll.c13fa4e291cd/vendor.dll.bundle.js:288725:33)\n    at new Watcher (http://127.0.0.1:42081/assets/webpack/dll.c13fa4e291cd/vendor.dll.bundle.js:288715:51)\n    at mountComponent (http://127.0.0.1:42081/assets/webpack/dll.c13fa4e291cd/vendor.dll.bundle.js:289171:5)\n    at vendor_cfa5101e872114249e62../node_modules/vue/dist/vue.runtime.esm.js.Vue.$mount (http://127.0.0.1:42081/assets/webpack/dll.c13fa4e291cd/vendor.dll.bundle.js:294045:12)\n    at init (http://127.0.0.1:42081/assets/webpack/dll.c13fa4e291cd/vendor.dll.bundle.js:289684:19)\n    at createComponent (http://127.0.0.1:42081/assets/webpack/dll.c13fa4e291cd/vendor.dll.bundle.js:291840:17)\n    at createElm (http://127.0.0.1:42081/assets/webpack/dll.c13fa4e291cd/vendor.dll.bundle.js:291794:13)\nwebpack-internal:///rP6D 23:46 \"[vue-router] Non-nested routes must include a leading slash character. Fix the following routes: \\n- (/-)?/tree/master/:path*\\n- (/-)?/blob/master/:path*\"\nwebpack-internal:///rP6D 23:46 \"[vue-router] Non-nested routes must include a leading slash character. Fix the following routes: \\n- (/-)?/tree/master/:path*\\n- (/-)?/blob/master/:path*\"\nwebpack-internal:///rP6D 23:46 \"[vue-router] Non-nested routes must include a leading slash character. Fix the following routes: \\n- (/-)?/tree/master/:path*\\n- (/-)?/blob/master/:path*\"\nhttp://127.0.0.1:42081/assets/webpack/dll.c13fa4e291cd/vendor.dll.bundle.js 289881:20 \"[Vue warn]: Invalid prop: custom validator check failed for prop \\\"item\\\".\\n\\nfound in\\n\\n---> \\u003CBoardCardMoveToPosition> at boards/components/board_card_move_to_position.vue\\n       \\u003CBoardCardInner> at boards/components/board_card_inner.vue\\n         \\u003CBoardCard> at boards/components/board_card.vue\\n           \\u003CBoardList> at boards/components/board_list.vue\\n             \\u003CBoardColumn> at boards/components/board_column.vue\\n               \\u003CDraggable>\\n                 \\u003CBoardContent> at boards/components/board_content.vue\\n                   \\u003CBoardApp> at boards/components/board_app.vue\\n                     \\u003CRoot>\"\nhttp://127.0.0.1:42081/assets/webpack/dll.c13fa4e291cd/vendor.dll.bundle.js 289881:20 \"[Vue warn]: Invalid prop: custom validator check failed for prop \\\"item\\\".\\n\\nfound in\\n\\n---> \\u003CBoardCardMoveToPosition> at boards/components/board_card_move_to_position.vue\\n       \\u003CBoardCardInner> at boards/components/board_card_inner.vue\\n         \\u003CBoardCard> at boards/components/board_card.vue\\n           \\u003CBoardList> at boards/components/board_list.vue\\n             \\u003CBoardColumn> at boards/components/board_column.vue\\n               \\u003CDraggable>\\n                 \\u003CBoardContent> at boards/components/board_content.vue\\n                   \\u003CBoardApp> at boards/components/board_app.vue\\n                     \\u003CRoot>\"\nhttp://127.0.0.1:42081/assets/webpack/dll.c13fa4e291cd/vendor.dll.bundle.js 289881:20 \"[Vue warn]: Invalid prop: custom validator check failed for prop \\\"item\\\".\\n\\nfound in\\n\\n---> \\u003CBoardCardMoveToPosition> at boards/components/board_card_move_to_position.vue\\n       \\u003CBoardCardInner> at boards/components/board_card_inner.vue\\n         \\u003CBoardCard> at boards/components/board_card.vue\\n           \\u003CBoardList> at boards/components/board_list.vue\\n             \\u003CBoardColumn> at boards/components/board_column.vue\\n               \\u003CDraggable>\\n                 \\u003CBoardContent> at boards/components/board_content.vue\\n                   \\u003CBoardApp> at boards/components/board_app.vue\\n                     \\u003CRoot>\"\nhttp://127.0.0.1:42081/assets/webpack/dll.c13fa4e291cd/vendor.dll.bundle.js 289881:20 \"[Vue warn]: Invalid prop: custom validator check failed for prop \\\"item\\\".\\n\\nfound in\\n\\n---> \\u003CBoardCardMoveToPosition> at boards/components/board_card_move_to_position.vue\\n       \\u003CBoardCardInner> at boards/components/board_card_inner.vue\\n         \\u003CBoardCard> at boards/components/board_card.vue\\n           \\u003CBoardList> at boards/components/board_list.vue\\n             \\u003CBoardColumn> at boards/components/board_column.vue\\n               \\u003CDraggable>\\n                 \\u003CBoardContent> at boards/components/board_content.vue\\n                   \\u003CBoardApp> at boards/components/board_app.vue\\n                     \\u003CRoot>\"\nhttp://127.0.0.1:42081/assets/webpack/dll.c13fa4e291cd/vendor.dll.bundle.js 289881:20 \"[Vue warn]: Invalid prop: custom validator check failed for prop \\\"item\\\".\\n\\nfound in\\n\\n---> \\u003CBoardCardMoveToPosition> at boards/components/board_card_move_to_position.vue\\n       \\u003CBoardCardInner> at boards/components/board_card_inner.vue\\n         \\u003CBoardCard> at boards/components/board_card.vue\\n           \\u003CBoardList> at boards/components/board_list.vue\\n             \\u003CBoardColumn> at boards/components/board_column.vue\\n               \\u003CDraggable>\\n                 \\u003CBoardContent> at boards/components/board_content.vue\\n                   \\u003CBoardApp> at boards/components/board_app.vue\\n                     \\u003CRoot>\"\nhttp://127.0.0.1:42081/assets/webpack/dll.c13fa4e291cd/vendor.dll.bundle.js 289881:20 \"[Vue warn]: Invalid prop: custom validator check failed for prop \\\"item\\\".\\n\\nfound in\\n\\n---> \\u003CBoardCardMoveToPosition> at boards/components/board_card_move_to_position.vue\\n       \\u003CBoardCardInner> at boards/components/board_card_inner.vue\\n         \\u003CBoardCard> at boards/components/board_card.vue\\n           \\u003CBoardList> at boards/components/board_list.vue\\n             \\u003CBoardColumn> at boards/components/board_column.vue\\n               \\u003CDraggable>\\n                 \\u003CBoardContent> at boards/components/board_content.vue\\n                   \\u003CBoardApp> at boards/components/board_app.vue\\n                     \\u003CRoot>\"\nhttp://127.0.0.1:42081/assets/webpack/dll.c13fa4e291cd/vendor.dll.bundle.js 289881:20 \"[Vue warn]: Error in render: \\\"TypeError: Cannot read properties of null (reading 'color')\\\"\\n\\nfound in\\n\\n---> \\u003CBoardListHeader> at boards/components/board_list_header.vue\\n       \\u003CBoardColumn> at boards/components/board_column.vue\\n         \\u003CBoardContent> at boards/components/board_content.vue\\n           \\u003CBoardApp> at boards/components/board_app.vue\\n             \\u003CRoot>\"\nhttp://127.0.0.1:42081/assets/webpack/dll.c13fa4e291cd/vendor.dll.bundle.js 288327:16 TypeError: Cannot read properties of null (reading 'color')\n    at Proxy.render (webpack-internal:///tnEE:119:42)\n    at Vue._render (http://127.0.0.1:42081/assets/webpack/dll.c13fa4e291cd/vendor.dll.bundle.js:287963:28)\n    at VueComponent.updateComponent (http://127.0.0.1:42081/assets/webpack/dll.c13fa4e291cd/vendor.dll.bundle.js:289154:27)\n    at vendor_cfa5101e872114249e62../node_modules/vue/dist/vue.runtime.esm.js.Watcher.get (http://127.0.0.1:42081/assets/webpack/dll.c13fa4e291cd/vendor.dll.bundle.js:288725:33)\n    at new Watcher (http://127.0.0.1:42081/assets/webpack/dll.c13fa4e291cd/vendor.dll.bundle.js:288715:51)\n    at mountComponent (http://127.0.0.1:42081/assets/webpack/dll.c13fa4e291cd/vendor.dll.bundle.js:289171:5)\n    at vendor_cfa5101e872114249e62../node_modules/vue/dist/vue.runtime.esm.js.Vue.$mount (http://127.0.0.1:42081/assets/webpack/dll.c13fa4e291cd/vendor.dll.bundle.js:294045:12)\n    at init (http://127.0.0.1:42081/assets/webpack/dll.c13fa4e291cd/vendor.dll.bundle.js:289684:19)\n    at createComponent (http://127.0.0.1:42081/assets/webpack/dll.c13fa4e291cd/vendor.dll.bundle.js:291840:17)\n    at createElm (http://127.0.0.1:42081/assets/webpack/dll.c13fa4e291cd/vendor.dll.bundle.js:291794:13)\nhttp://127.0.0.1:42081/assets/webpack/dll.c13fa4e291cd/vendor.dll.bundle.js 5153:27 Uncaught Error: The resource that you are attempting to access doe… you don't have permission to perform this action\nhttp://127.0.0.1:42081/assets/webpack/dll.c13fa4e291cd/vendor.dll.bundle.js 289881:20 \"[Vue warn]: Error in render: \\\"TypeError: Cannot read properties of null (reading 'color')\\\"\\n\\nfound in\\n\\n---> \\u003CBoardListHeader> at boards/components/board_list_header.vue\\n       \\u003CBoardColumn> at boards/components/board_column.vue\\n         \\u003CBoardContent> at boards/components/board_content.vue\\n           \\u003CBoardApp> at boards/components/board_app.vue\\n             \\u003CRoot>\"\nhttp://127.0.0.1:42081/assets/webpack/dll.c13fa4e291cd/vendor.dll.bundle.js 288327:16 TypeError: Cannot read properties of null (reading 'color')\n    at Proxy.render (webpack-internal:///tnEE:119:42)\n    at Vue._render (http://127.0.0.1:42081/assets/webpack/dll.c13fa4e291cd/vendor.dll.bundle.js:287963:28)\n    at VueComponent.updateComponent (http://127.0.0.1:42081/assets/webpack/dll.c13fa4e291cd/vendor.dll.bundle.js:289154:27)\n    at vendor_cfa5101e872114249e62../node_modules/vue/dist/vue.runtime.esm.js.Watcher.get (http://127.0.0.1:42081/assets/webpack/dll.c13fa4e291cd/vendor.dll.bundle.js:288725:33)\n    at new Watcher (http://127.0.0.1:42081/assets/webpack/dll.c13fa4e291cd/vendor.dll.bundle.js:288715:51)\n    at mountComponent (http://127.0.0.1:42081/assets/webpack/dll.c13fa4e291cd/vendor.dll.bundle.js:289171:5)\n    at vendor_cfa5101e872114249e62../node_modules/vue/dist/vue.runtime.esm.js.Vue.$mount (http://127.0.0.1:42081/assets/webpack/dll.c13fa4e291cd/vendor.dll.bundle.js:294045:12)\n    at init (http://127.0.0.1:42081/assets/webpack/dll.c13fa4e291cd/vendor.dll.bundle.js:289684:19)\n    at createComponent (http://127.0.0.1:42081/assets/webpack/dll.c13fa4e291cd/vendor.dll.bundle.js:291840:17)\n    at createElm (http://127.0.0.1:42081/assets/webpack/dll.c13fa4e291cd/vendor.dll.bundle.js:291794:13)\nhttp://127.0.0.1:42081/assets/webpack/dll.c13fa4e291cd/vendor.dll.bundle.js 289881:20 \"[Vue warn]: Error in render: \\\"TypeError: Cannot read properties of null (reading 'color')\\\"\\n\\nfound in\\n\\n---> \\u003CBoardListHeader> at boards/components/board_list_header.vue\\n       \\u003CBoardColumn> at boards/components/board_column.vue\\n         \\u003CBoardContent> at boards/components/board_content.vue\\n           \\u003CBoardApp> at boards/components/board_app.vue\\n             \\u003CRoot>\"\nhttp://127.0.0.1:42081/assets/webpack/dll.c13fa4e291cd/vendor.dll.bundle.js 288327:16 TypeError: Cannot read properties of null (reading 'color')\n    at Proxy.render (webpack-internal:///tnEE:119:42)\n    at Vue._render (http://127.0.0.1:42081/assets/webpack/dll.c13fa4e291cd/vendor.dll.bundle.js:287963:28)\n    at VueComponent.updateComponent (http://127.0.0.1:42081/assets/webpack/dll.c13fa4e291cd/vendor.dll.bundle.js:289154:27)\n    at vendor_cfa5101e872114249e62../node_modules/vue/dist/vue.runtime.esm.js.Watcher.get (http://127.0.0.1:42081/assets/webpack/dll.c13fa4e291cd/vendor.dll.bundle.js:288725:33)\n    at new Watcher (http://127.0.0.1:42081/assets/webpack/dll.c13fa4e291cd/vendor.dll.bundle.js:288715:51)\n    at mountComponent (http://127.0.0.1:42081/assets/webpack/dll.c13fa4e291cd/vendor.dll.bundle.js:289171:5)\n    at vendor_cfa5101e872114249e62../node_modules/vue/dist/vue.runtime.esm.js.Vue.$mount (http://127.0.0.1:42081/assets/webpack/dll.c13fa4e291cd/vendor.dll.bundle.js:294045:12)\n    at init (http://127.0.0.1:42081/assets/webpack/dll.c13fa4e291cd/vendor.dll.bundle.js:289684:19)\n    at createComponent (http://127.0.0.1:42081/assets/webpack/dll.c13fa4e291cd/vendor.dll.bundle.js:291840:17)\n    at createElm (http://127.0.0.1:42081/assets/webpack/dll.c13fa4e291cd/vendor.dll.bundle.js:291794:13)\nhttp://127.0.0.1:42081/assets/webpack/dll.c13fa4e291cd/vendor.dll.bundle.js 5153:27 Uncaught Error: The resource that you are attempting to access doe… you don't have permission to perform this action\nhttps://www.gravatar.com/avatar/796f940670cd7cb7e20aa1717744de7c?s=48&d=identicon - Failed to load resource: net::ERR_SOCKET_NOT_CONNECTED\nhttps://www.gravatar.com/avatar/3cb17c6500eac5b832d9b7fc81ced320?s=48&d=identicon - Failed to load resource: net::ERR_SOCKET_NOT_CONNECTED\nhttps://www.gravatar.com/avatar/d3e12e6ba98d831e2ef9f7dccad98a8e?s=48&d=identicon - Failed to load resource: net::ERR_SOCKET_NOT_CONNECTED\nhttps://www.gravatar.com/avatar/edded0138704cbcdf114cd3f5c9c9b5d?s=80&d=identicon - Failed to load resource: net::ERR_EMPTY_RESPONSE\nhttps://www.gravatar.com/avatar/9a844eb59a49358bc588cf7de6c44e4e?s=48&d=identicon - Failed to load resource: net::ERR_SOCKET_NOT_CONNECTED\nwebpack-internal:///gzws 163:12 \"[gl-modal]: Accessible name for modal missing. Please add title prop or aria-label.\" #comment\nwebpack-internal:///gzws 163:12 \"[gl-modal]: Accessible name for modal missing. Please add title prop or aria-label.\" #comment\nwebpack-internal:///gzws 163:12 \"[gl-modal]: Accessible name for modal missing. Please add title prop or aria-label.\" #comment\n",
        "\nRSpec::Retry: 2nd try ./spec/features/nav/new_nav_callout_spec.rb:21"
    ],
    "examples":
    [
        {
            "id": "./spec/features/boards/sidebar_spec.rb[1:1:1]",
            "description": "shows sidebar when clicking issue",
            "full_description": "Project issue boards sidebar behaves like issue boards sidebar shows sidebar when clicking issue",
            "status": "failed",
            "file_path": "./spec/features/boards/sidebar_spec.rb",
            "line_number": 28,
            "run_time": 12.052467267,
            "pending_message": null,
            "testcase": null,
            "quarantine": null,
            "screenshot": null,
            "product_group": null,
            "feature_category": "category3",
            "ci_job_url": "https://gitlab.com/gitlab-org/gitlab/-/jobs/4389239322"
        },
        {
            "id": "./spec/features/boards/sidebar_spec.rb[1:1:2]",
            "description": "closes sidebar when clicking issue",
            "full_description": "Project issue boards sidebar behaves like issue boards sidebar closes sidebar when clicking issue",
            "status": "passed",
            "file_path": "./spec/features/boards/sidebar_spec.rb",
            "line_number": 28,
            "run_time": 6.202196296,
            "pending_message": null,
            "testcase": null,
            "quarantine": null,
            "screenshot": null,
            "product_group": null,
            "feature_category": "category2",
            "ci_job_url": "https://gitlab.com/gitlab-org/gitlab/-/jobs/4389239322"
        },
        {
            "id": "./spec/features/boards/sidebar_spec.rb[1:1:3]",
            "description": "shows issue details when sidebar is open",
            "full_description": "Project issue boards sidebar behaves like issue boards sidebar shows issue details when sidebar is open",
            "status": "failed",
            "file_path": "./spec/features/boards/sidebar_spec.rb",
            "line_number": 28,
            "run_time": 4.724490721,
            "pending_message": null,
            "testcase": null,
            "quarantine": null,
            "screenshot": null,
            "product_group": null,
            "feature_category": "category3",
            "ci_job_url": "https://gitlab.com/gitlab-org/gitlab/-/jobs/4389239322"
        },
        {
            "id": "./spec/features/boards/sidebar_spec.rb[1:1:4:1]",
            "description": "unhighlights the active issue card",
            "full_description": "Project issue boards sidebar behaves like issue boards sidebar when clicking close button unhighlights the active issue card",
            "status": "failed",
            "file_path": "./spec/features/boards/sidebar_spec.rb",
            "line_number": 28,
            "run_time": 5.176465883,
            "pending_message": null,
            "testcase": null,
            "quarantine": null,
            "screenshot": null,
            "product_group": null,
            "feature_category": "category3",
            "ci_job_url": "https://gitlab.com/gitlab-org/gitlab/-/jobs/4389239322"
        },
        {
            "id": "./spec/features/boards/sidebar_spec.rb[1:1:4:2]",
            "description": "closes sidebar when clicking close button",
            "full_description": "Project issue boards sidebar behaves like issue boards sidebar when clicking close button closes sidebar when clicking close button",
            "status": "failed",
            "file_path": "./spec/features/boards/sidebar_spec.rb",
            "line_number": 28,
            "run_time": 4.905623513,
            "pending_message": null,
            "testcase": null,
            "quarantine": null,
            "screenshot": null,
            "product_group": null,
            "feature_category": "category2",
            "ci_job_url": "https://gitlab.com/gitlab-org/gitlab/-/jobs/4389239322"
        },
        {
            "id": "./spec/features/boards/sidebar_spec.rb[1:1:5:1]",
            "description": "edits issue title",
            "full_description": "Project issue boards sidebar behaves like issue boards sidebar editing issue title edits issue title",
            "status": "passed",
            "file_path": "./spec/features/boards/sidebar_spec.rb",
            "line_number": 28,
            "run_time": 5.184739921,
            "pending_message": null,
            "testcase": null,
            "quarantine": null,
            "screenshot": null,
            "product_group": null,
            "feature_category": "category2",
            "ci_job_url": "https://gitlab.com/gitlab-org/gitlab/-/jobs/4389239322"
        },
        {
            "id": "./spec/features/boards/sidebar_spec.rb[1:1:6:1:1:1]",
            "description": "shows milestones list in the dropdown",
            "full_description": "Project issue boards sidebar behaves like issue boards sidebar editing issue milestone behaves like milestone sidebar widget editing milestone shows milestones list in the dropdown",
            "status": "passed",
            "file_path": "./spec/features/boards/sidebar_spec.rb",
            "line_number": 28,
            "run_time": 5.024023439,
            "pending_message": null,
            "testcase": null,
            "quarantine": null,
            "screenshot": null,
            "product_group": null,
            "feature_category": "category2",
            "ci_job_url": "https://gitlab.com/gitlab-org/gitlab/-/jobs/4389239322"
        },
        {
            "id": "./spec/features/boards/sidebar_spec.rb[1:1:6:1:1:2]",
            "description": "shows expired milestone at the bottom of the list and milestone due earliest at the top of the list",
            "full_description": "Project issue boards sidebar behaves like issue boards sidebar editing issue milestone behaves like milestone sidebar widget editing milestone shows expired milestone at the bottom of the list and milestone due earliest at the top of the list",
            "status": "passed",
            "file_path": "./spec/features/boards/sidebar_spec.rb",
            "line_number": 28,
            "run_time": 5.075862688,
            "pending_message": null,
            "testcase": null,
            "quarantine": null,
            "screenshot": null,
            "product_group": null,
            "feature_category": "category2",
            "ci_job_url": "https://gitlab.com/gitlab-org/gitlab/-/jobs/4389239322"
        },
        {
            "id": "./spec/features/boards/sidebar_spec.rb[1:1:6:1:1:3]",
            "description": "adds a milestone",
            "full_description": "Project issue boards sidebar behaves like issue boards sidebar editing issue milestone behaves like milestone sidebar widget editing milestone adds a milestone",
            "status": "passed",
            "file_path": "./spec/features/boards/sidebar_spec.rb",
            "line_number": 28,
            "run_time": 5.491208361,
            "pending_message": null,
            "testcase": null,
            "quarantine": null,
            "screenshot": null,
            "product_group": null,
            "feature_category": "category2",
            "ci_job_url": "https://gitlab.com/gitlab-org/gitlab/-/jobs/4389239322"
        }
    ],
    "summary":
    {
        "duration": 1702.1847279,
        "example_count": 229,
        "failure_count": 17,
        "pending_count": 3,
        "errors_outside_of_examples_count": 0
    },
    "summary_line": "229 examples, 17 failures, 3 pending",
    "seed": 26498
}
